{
    "server": "http://localhost:8080/ci/cleaninsights.php",
    "siteId": 1,
    "timeout": 5,
    "debug": true,
    "campaigns": {
        "test": {
            "start": "2022-01-01T00:00:00-00:00",
            "end": "2025-12-31T23:59:59-00:00",
            "aggregationPeriodLength": 1,
            "numberOfPeriods": 90,
            "onlyRecordOnce": false,
            "eventAggregationRule": "avg"
        }
    }
}
