{
    "server": "http://localhost:8080/ci/cleaninsights.php",
    "siteId": 1,
    "timeout": 1,
    "maxRetryDelay": 1,
    "maxAgeOfOldData": 1,
    "persistEveryNTimes": 1,
    "serverSideAnonymousUsage": false,
    "debug": true,
    "campaigns": {
        "test": {
            "start": "2021-01-01T00:00:00-00:00",
            "end": "2099-12-31T23:59:59-00:00",
            "aggregationPeriodLength": 1,
            "numberOfPeriods": 90,
            "onlyRecordOnce": false,
            "eventAggregationRule": "avg",
            "strengthenAnonymity": false
        }
    }
}
